{
  "outputDir": "experiment_results/comparisonQuality/rascl_10_100",
  "experiment": {
    "parameters": [ {
        "name": "topk",
        "type": "values",
        "values": [10]
      }, {
        "name": "patternSorter",
        "type": "values",
        "values": ["object_count"]
      }, {
        "name": "overlap",
        "type": "fixed",
        "value": 0.25
      }, {
        "name": "runCount",
        "type": "fixed",
        "value": 10
      }, {
        "name": "clusterAssigner",
        "type": "fixed",
        "value": "sc_precision"
      }
    ]
  },
  "clusterConverter": {
    "parameters": [ {
        "name": "prune",
        "type": "fixed",
        "value": "False"
      }, {
        "name": "recomputeDimensions",
        "type": "fixed",
        "value": "False"
      }, {
        "name": "dimensionsAlg",
        "type": "values",
        "values": ["alpha|0"]
      }
    ]
  },
  "subspaceCluster": {
    "dimscale_d05": {
      "name": "rascl/vary_kk",
      "dataFile": "/Users/sandy/workspaces/data/synth/dimscale_d05/dimscale_d05.raw.txt",
      "clustersFile": "/Users/sandy/workspaces/data/synth/dimscale_d05/dimscale_d05.clusters.txt",
      "parameters": [
        {
          "name": "n",
          "type": "fixed",
          "value": 1000
        },
        {
          "name": "k",
          "type": "fixed",
          "value": 100
        },
        {
          "name": "kk",
          "type": "values",
          "values": [10]
        },
        {
          "name": "s",
          "type": "fixed",
          "value": "rmis|100"
        },
        {
          "name": "m",
          "type": "fixed",
          "value": 100
        },
        {
          "name": "sampleDimCount",
          "type": "fixed",
          "value": "weightedFD|2"
        }
      ]
    }, "dimscale_d10": {
      "name": "rascl/vary_kk",
      "dataFile": "/Users/sandy/workspaces/data/synth/dimscale_d10/dimscale_d10.raw.txt",
      "clustersFile": "/Users/sandy/workspaces/data/synth/dimscale_d10/dimscale_d10.clusters.txt",
      "parameters": [
        {
          "name": "n",
          "type": "fixed",
          "value": 1000
        },
        {
          "name": "k",
          "type": "fixed",
          "value": 100
        },
        {
          "name": "kk",
          "type": "values",
          "values": [10]
        },
        {
          "name": "s",
          "type": "fixed",
          "value": "rmis|100"
        },
        {
          "name": "m",
          "type": "fixed",
          "value": 100
        },
        {
          "name": "sampleDimCount",
          "type": "fixed",
          "value": "weightedFD|2"
        }
      ]
    }, "dimscale_d25": {
      "name": "rascl/vary_kk",
      "dataFile": "/Users/sandy/workspaces/data/synth/dimscale_d25/dimscale_d25.raw.txt",
      "clustersFile": "/Users/sandy/workspaces/data/synth/dimscale_d25/dimscale_d25.clusters.txt",
      "parameters": [
        {
          "name": "n",
          "type": "fixed",
          "value": 1000
        },
        {
          "name": "k",
          "type": "fixed",
          "value": 100
        },
        {
          "name": "kk",
          "type": "values",
          "values": [10]
        },
        {
          "name": "s",
          "type": "fixed",
          "value": "rmis|100"
        },
        {
          "name": "m",
          "type": "fixed",
          "value": 100
        },
        {
          "name": "sampleDimCount",
          "type": "fixed",
          "value": "weightedFD|2"
        }
      ]
    }, "dimscale_d50": {
      "name": "rascl/vary_kk",
      "dataFile": "/Users/sandy/workspaces/data/synth/dimscale_d50/dimscale_d50.raw.txt",
      "clustersFile": "/Users/sandy/workspaces/data/synth/dimscale_d50/dimscale_d50.clusters.txt",
      "parameters": [
        {
          "name": "n",
          "type": "fixed",
          "value": 1000
        },
        {
          "name": "k",
          "type": "fixed",
          "value": 100
        },
        {
          "name": "kk",
          "type": "values",
          "values": [10]
        },
        {
          "name": "s",
          "type": "fixed",
          "value": "rmis|100"
        },
        {
          "name": "m",
          "type": "fixed",
          "value": 100
        },
        {
          "name": "sampleDimCount",
          "type": "fixed",
          "value": "weightedFD|2"
        }
      ]
    }, "dimscale_d75": {
      "name": "rascl/vary_kk",
      "dataFile": "data/dimscale_d75/dimscale_d75.raw.txt",
      "clustersFile": "data/dimscale_d75/dimscale_d75.clusters.txt",
      "parameters": [
        {
          "name": "n",
          "type": "fixed",
          "value": 1000
        },
        {
          "name": "k",
          "type": "fixed",
          "value": 100
        },
        {
          "name": "kk",
          "type": "values",
          "values": [10]
        },
        {
          "name": "s",
          "type": "fixed",
          "value": "rmis|100"
        },
        {
          "name": "m",
          "type": "fixed",
          "value": 100
        },
        {
          "name": "sampleDimCount",
          "type": "fixed",
          "value": "weightedFD|2"
        }
      ]
    }
  },
 "evaluation": [
   "object_precision_res",
   "object_recall_res",
   "dimension_precision_res",
   "dimension_recall_res",
   "e4sc_res"
  ]
}