{
  "outputDir": "experiment_results/comparisonQuality/rasclr_10_100",
  "experiment": {
    "parameters": [ {
        "name": "topk",
        "type": "values",
        "values": [10]
      }, {
        "name": "patternSorter",
        "type": "values",
        "values": ["object_count"]
      }, {
        "name": "overlap",
        "type": "fixed",
        "value": 0.25
      }, {
        "name": "runCount",
        "type": "fixed",
        "value": 10
      }, {
        "name": "clusterAssigner",
        "type": "fixed",
        "value": "sc_precision"
      }
    ]
  },
  "clusterConverter": {
    "parameters": [ {
        "name": "prune",
        "type": "fixed",
        "value": "False"
      }, {
        "name": "recomputeDimensions",
        "type": "fixed",
        "value": "False"
      }, {
        "name": "dimensionsAlg",
        "type": "values",
        "values": ["alpha|0"]
      }
    ]
  },
  "subspaceCluster": {
    "dbsizescale_s1500": {
      "name": "rasclr/vary_k",
      "dataFile": "data/dbsizescale_s1500/dbsizescale_s1500.raw.txt",
      "clustersFile": "data/dbsizescale_s1500/dbsizescale_s1500.clusters.txt",
      "parameters": [
        {
          "name": "n",
          "type": "fixed",
          "value": 1000
        },
        {
          "name": "k",
          "type": "values",
          "values": [10]
        },
        {
          "name": "s",
          "type": "fixed",
          "value": "rmis|100"
        },
        {
          "name": "m",
          "type": "fixed",
          "value": 100
        },
        {
          "name": "sampleDimCount",
          "type": "fixed",
          "value": "weightedFD|2"
        }
      ]
    }, "dbsizescale_s2500": {
      "name": "rasclr/vary_k",
      "dataFile": "data/dbsizescale_s2500/dbsizescale_s2500.raw.txt",
      "clustersFile": "data/dbsizescale_s2500/dbsizescale_s2500.clusters.txt",
      "parameters": [
        {
          "name": "n",
          "type": "fixed",
          "value": 1000
        },
        {
          "name": "k",
          "type": "values",
          "values": [10]
        },
        {
          "name": "s",
          "type": "fixed",
          "value": "rmis|100"
        },
        {
          "name": "m",
          "type": "fixed",
          "value": 100
        },
        {
          "name": "sampleDimCount",
          "type": "fixed",
          "value": "weightedFD|2"
        }
      ]
    }, "dbsizescale_s3500": {
      "name": "rasclr/vary_k",
      "dataFile": "data/dbsizescale_s3500/dbsizescale_s3500.raw.txt",
      "clustersFile": "data/dbsizescale_s3500/dbsizescale_s3500.clusters.txt",
      "parameters": [
        {
          "name": "n",
          "type": "fixed",
          "value": 1000
        },
        {
          "name": "k",
          "type": "values",
          "values": [10]
        },
        {
          "name": "s",
          "type": "fixed",
          "value": "rmis|100"
        },
        {
          "name": "m",
          "type": "fixed",
          "value": 100
        },
        {
          "name": "sampleDimCount",
          "type": "fixed",
          "value": "weightedFD|2"
        }
      ]
    }, "dbsizescale_s4500": {
      "name": "rasclr/vary_k",
      "dataFile": "data/dbsizescale_s4500/dbsizescale_s4500.raw.txt",
      "clustersFile": "data/dbsizescale_s4500/dbsizescale_s4500.clusters.txt",
      "parameters": [
        {
          "name": "n",
          "type": "fixed",
          "value": 1000
        },
        {
          "name": "k",
          "type": "values",
          "values": [10]
        },
        {
          "name": "s",
          "type": "fixed",
          "value": "rmis|100"
        },
        {
          "name": "m",
          "type": "fixed",
          "value": 100
        },
        {
          "name": "sampleDimCount",
          "type": "fixed",
          "value": "weightedFD|2"
        }
      ]
    }, "dbsizescale_s5500": {
      "name": "rasclr/vary_k",
      "dataFile": "data/dbsizescale_s5500/dbsizescale_s5500.raw.txt",
      "clustersFile": "data/dbsizescale_s5500/dbsizescale_s5500.clusters.txt",
      "parameters": [
        {
          "name": "n",
          "type": "fixed",
          "value": 1000
        },
        {
          "name": "k",
          "type": "values",
          "values": [10]
        },
        {
          "name": "s",
          "type": "fixed",
          "value": "rmis|100"
        },
        {
          "name": "m",
          "type": "fixed",
          "value": 100
        },
        {
          "name": "sampleDimCount",
          "type": "fixed",
          "value": "weightedFD|2"
        }
      ]
    }
  },
 "evaluation": [
   "object_precision_res",
   "object_recall_res",
   "dimension_precision_res",
   "dimension_recall_res",
   "e4sc_res"
  ]
}