{
  "outputDir": "experiment_results_sc2_dimensionSampling_10_100",
  "experiment": {
    "parameters": [ {
        "name": "topk",
        "type": "values",
        "values": [10]
      }, {
        "name": "patternSorter",
        "type": "values",
        "values": ["object_count"]
      }, {
        "name": "overlap",
        "type": "fixed",
        "value": 0.25
      }, {
        "name": "runCount",
        "type": "fixed",
        "value": 10
      }, {
        "name": "clusterAssigner",
        "type": "fixed",
        "value": "sc_precision"
      }
    ]
  },
  "clusterConverter": {
    "parameters": [ {
        "name": "prune",
        "type": "fixed",
        "value": "False"
      }, {
        "name": "recomputeDimensions",
        "type": "fixed",
        "value": "False"
      }, {
        "name": "dimensionsAlg",
        "type": "values",
        "values": ["alpha_0"]
      }
    ]
  },
  "subspaceCluster": {
    "dimscale_d05": {
      "name": "sc2_v2/vary_sampleDimCount",
      "dataKey": "dimscale_d05",
      "parameters": [
        {
          "name": "n",
          "type": "fixed",
          "value": 1000
        },
        {
          "name": "k",
          "type": "fixed",
          "value": 100
        },
        {
          "name": "kk",
          "type": "fixed",
          "value": 10
        },
        {
          "name": "s",
          "type": "fixed",
          "value": "rmis|100"
        },
        {
          "name": "m",
          "type": "fixed",
          "value": 100
        },
        {
          "name": "sampleDimCount",
          "type": "values",
          "values": ["uniform|1", "uniform|2", "uniform|3", "uniform|4", "weightedFD|1", "weightedFD|2", "weightedFD|3", "weightedFD|4"]
        }
      ]
    }, "dimscale_d10": {
      "name": "sc2_v2/vary_sampleDimCount",
      "dataKey": "dimscale_d10",
      "parameters": [
        {
          "name": "n",
          "type": "fixed",
          "value": 1000
        },
        {
          "name": "k",
          "type": "fixed",
          "value": 100
        },
        {
          "name": "kk",
          "type": "fixed",
          "value": 10
        },
        {
          "name": "s",
          "type": "fixed",
          "value": "rmis|100"
        },
        {
          "name": "m",
          "type": "fixed",
          "value": 100
        },
        {
          "name": "sampleDimCount",
          "type": "values",
          "values": ["uniform|1", "uniform|2", "uniform|3", "uniform|4", "weightedFD|1", "weightedFD|2", "weightedFD|3", "weightedFD|4"]
        }
      ]
    }, "dimscale_d25": {
      "name": "sc2_v2/vary_sampleDimCount",
      "dataKey": "dimscale_d25",
      "parameters": [
        {
          "name": "n",
          "type": "fixed",
          "value": 1000
        },
        {
          "name": "k",
          "type": "fixed",
          "value": 100
        },
        {
          "name": "kk",
          "type": "fixed",
          "value": 10
        },
        {
          "name": "s",
          "type": "fixed",
          "value": "rmis|100"
        },
        {
          "name": "m",
          "type": "fixed",
          "value": 100
        },
        {
          "name": "sampleDimCount",
          "type": "values",
          "values": ["uniform|1", "uniform|2", "uniform|3", "uniform|4", "weightedFD|1", "weightedFD|2", "weightedFD|3", "weightedFD|4"]
        }
      ]
    }, "dimscale_d50": {
      "name": "sc2_v2/vary_sampleDimCount",
      "dataKey": "dimscale_d50",
      "parameters": [
        {
          "name": "n",
          "type": "fixed",
          "value": 1000
        },
        {
          "name": "k",
          "type": "fixed",
          "value": 100
        },
        {
          "name": "kk",
          "type": "fixed",
          "value": 10
        },
        {
          "name": "s",
          "type": "fixed",
          "value": "rmis|100"
        },
        {
          "name": "m",
          "type": "fixed",
          "value": 100
        },
        {
          "name": "sampleDimCount",
          "type": "values",
          "values": ["uniform|1", "uniform|2", "uniform|3", "uniform|4", "weightedFD|1", "weightedFD|2", "weightedFD|3", "weightedFD|4"]
        }
      ]
    }, "dimscale_d75": {
      "name": "sc2_v2/vary_sampleDimCount",
      "dataKey": "dimscale_d75",
      "parameters": [
        {
          "name": "n",
          "type": "fixed",
          "value": 1000
        },
        {
          "name": "k",
          "type": "fixed",
          "value": 100
        },
        {
          "name": "kk",
          "type": "fixed",
          "value": 10
        },
        {
          "name": "s",
          "type": "fixed",
          "value": "rmis|100"
        },
        {
          "name": "m",
          "type": "fixed",
          "value": 100
        },
        {
          "name": "sampleDimCount",
          "type": "values",
          "values": ["uniform|1", "uniform|2", "uniform|3", "uniform|4", "weightedFD|1", "weightedFD|2", "weightedFD|3", "weightedFD|4"]
        }
      ]
    }
  },
 "evaluation": [
   "object_precision_res",
   "object_recall_res",
   "dimension_precision_res",
   "dimension_recall_res",
   "e4sc_res"
  ]
}