{
  "experiment": {
    "parameters": [ {
        "name": "topk",
        "type": "values",
        "values": [10]
      }, {
        "name": "patternSorter",
        "type": "values",
        "values": ["object_count"]
      }, {
        "name": "overlap",
        "type": "fixed",
        "value": 0.25
      }, {
        "name": "runCount",
        "type": "fixed",
        "value": 2
      }
    ]
  },
  "clusterConverter": {
    "parameters": [ {
        "name": "prune",
        "type": "fixed",
        "value": "False"
      }, {
        "name": "recomputeDimensions",
        "type": "fixed",
        "value": "False"
      }, {
        "name": "dimensionsAlg",
        "type": "values",
        "values": ["alpha|0"]
      }
    ]
  },
  "subspaceCluster": {
    "dimscale_d50": {
      "name": "rascl/fixed",
      "dataFile": "data/dimscale_d50/dimscale_d50.raw.txt",
      "clustersFile": "data/dimscale_d50/dimscale_d50.clusters.txt",
      "parameters": [
        {
          "name": "n",
          "type": "fixed",
          "value": 1000
        },
        {
          "name": "k",
          "type": "fixed",
          "value": 100
        },
        {
          "name": "kk",
          "type": "fixed",
          "value": 20
        },
        {
          "name": "s",
          "type": "fixed",
          "value": "rmis|200"
        },
        {
          "name": "m",
          "type": "fixed",
          "value": 10000
        },
        {
          "name": "sampleDimCount",
          "type": "fixed",
          "value": "weightedFD|2"
        }
      ]
    }
  },
 "evaluation": [
    "e4sc_f1"
  ]
}