{
  "experiment": {
    "parameters": [ {
        "name": "topk",
        "type": "values",
        "values": [10]
      }, {
        "name": "patternSorter",
        "type": "values",
        "values": ["object_count"]
      }, {
        "name": "overlap",
        "type": "fixed",
        "value": 0.25
      }, {
        "name": "runCount",
        "type": "fixed",
        "value": 1
      }
    ]
  },
  "clusterConverter": {
    "parameters": [ {
        "name": "prune",
        "type": "fixed",
        "value": "False"
      }, {
        "name": "recomputeDimensions",
        "type": "fixed",
        "value": "False"
      }, {
        "name": "dimensionsAlg",
        "type": "values",
        "values": ["alpha|0"]
      }
    ]
  },
  "subspaceCluster": {
    "pendigits": {
      "name": "rascl/fixed",
      "dataFile": "data/pendigits/pendigits.raw.txt",
      "clustersFile": "data/pendigits/pendigits.clusters.txt",
      "parameters": [
        {
          "name": "n",
          "type": "fixed",
          "value": 1000
        },
        {
          "name": "k",
          "type": "fixed",
          "value": 100
        },
        {
          "name": "kk",
          "type": "fixed",
          "value": 10
        },
        {
          "name": "s",
          "type": "fixed",
          "value": "rmis|100"
        },
        {
          "name": "m",
          "type": "fixed",
          "value": 100
        },
        {
          "name": "sampleDimCount",
          "type": "fixed",
          "value": "weightedFD|2"
        },
        {
          "name": "expand",
          "type": "fixed",
          "value": "drop|0.05"
        }
      ]
    }
  }
}